%TF.GenerationSoftware,KiCad,Pcbnew,(6.0.10)*%
%TF.CreationDate,2023-02-03T20:06:50+01:00*%
%TF.ProjectId,claw,636c6177-2e6b-4696-9361-645f70636258,v1.0.0*%
%TF.SameCoordinates,Original*%
%TF.FileFunction,Paste,Top*%
%TF.FilePolarity,Positive*%
%FSLAX46Y46*%
G04 Gerber Fmt 4.6, Leading zero omitted, Abs format (unit mm)*
G04 Created by KiCad (PCBNEW (6.0.10)) date 2023-02-03 20:06:50*
%MOMM*%
%LPD*%
G01*
G04 APERTURE LIST*
G04 Aperture macros list*
%AMRotRect*
0 Rectangle, with rotation*
0 The origin of the aperture is its center*
0 $1 length*
0 $2 width*
0 $3 Rotation angle, in degrees counterclockwise*
0 Add horizontal line*
21,1,$1,$2,0,0,$3*%
G04 Aperture macros list end*
%ADD10RotRect,2.600000X2.600000X5.000000*%
%ADD11R,2.600000X2.600000*%
%ADD12R,1.500000X1.400000*%
%ADD13RotRect,2.600000X2.600000X30.000000*%
%ADD14RotRect,2.600000X2.600000X304.000000*%
%ADD15RotRect,2.600000X2.600000X332.000000*%
%ADD16R,1.000000X0.800000*%
%ADD17R,0.700000X1.500000*%
%ADD18R,0.700000X1.250000*%
G04 APERTURE END LIST*
D10*
%TO.C,S4*%
X120213369Y-90191760D03*
X108899063Y-93390038D03*
%TD*%
%TO.C,S12*%
X155105472Y-53009223D03*
X143791166Y-56207501D03*
%TD*%
D11*
%TO.C,S16*%
X170205254Y-108663425D03*
X158655254Y-110863425D03*
%TD*%
D12*
%TO.C,*%
X215930254Y-92363425D03*
X215930254Y-98863425D03*
%TD*%
D11*
%TO.C,S15*%
X179205254Y-55663425D03*
X167655254Y-57863425D03*
%TD*%
D10*
%TO.C,S11*%
X156587120Y-69944532D03*
X145272814Y-73142810D03*
%TD*%
%TO.C,S10*%
X158068768Y-86879842D03*
X146754462Y-90078120D03*
%TD*%
D13*
%TO.C,S1*%
X96980955Y-102235295D03*
X88078362Y-109915551D03*
%TD*%
D11*
%TO.C,S14*%
X179205254Y-72663425D03*
X167655254Y-74863425D03*
%TD*%
D10*
%TO.C,S5*%
X118731721Y-73256451D03*
X107417415Y-76454729D03*
%TD*%
D14*
%TO.C,S18*%
X212776168Y-134302940D03*
X204493608Y-125957781D03*
%TD*%
D11*
%TO.C,S13*%
X179205254Y-89663425D03*
X167655254Y-91863425D03*
%TD*%
D10*
%TO.C,S9*%
X135807361Y-50431354D03*
X124493055Y-53629632D03*
%TD*%
%TO.C,S7*%
X138770656Y-84301974D03*
X127456350Y-87500252D03*
%TD*%
%TO.C,S8*%
X137289009Y-67366664D03*
X125974703Y-70564942D03*
%TD*%
D13*
%TO.C,S3*%
X79980955Y-72790431D03*
X71078362Y-80470687D03*
%TD*%
D15*
%TO.C,S17*%
X194687035Y-116176122D03*
X183456153Y-112696210D03*
%TD*%
D16*
%TO.C,*%
X218360254Y-74963425D03*
X218360254Y-82263425D03*
X216150254Y-74963425D03*
X216150254Y-82263425D03*
D17*
X215500254Y-80863425D03*
D18*
X215500254Y-77988425D03*
X215500254Y-76238425D03*
%TD*%
D10*
%TO.C,S6*%
X117250074Y-56321141D03*
X105935768Y-59519419D03*
%TD*%
D13*
%TO.C,S2*%
X88480955Y-87512863D03*
X79578362Y-95193119D03*
%TD*%
M02*
