%TF.GenerationSoftware,KiCad,Pcbnew,(6.0.10)*%
%TF.CreationDate,2023-02-03T20:06:50+01:00*%
%TF.ProjectId,claw,636c6177-2e6b-4696-9361-645f70636258,v1.0.0*%
%TF.SameCoordinates,Original*%
%TF.FileFunction,Profile,NP*%
%FSLAX46Y46*%
G04 Gerber Fmt 4.6, Leading zero omitted, Abs format (unit mm)*
G04 Created by KiCad (PCBNEW (6.0.10)) date 2023-02-03 20:06:50*
%MOMM*%
%LPD*%
G01*
G04 APERTURE LIST*
%TA.AperFunction,Profile*%
%ADD10C,0.150000*%
%TD*%
G04 APERTURE END LIST*
D10*
X202539148Y-149021616D02*
G75*
G03*
X204582525Y-148906412I924952J1773416D01*
G01*
X91866665Y-121527044D02*
G75*
G03*
X94598698Y-122259104I1732035J999944D01*
G01*
X167520335Y-51413425D02*
X184730254Y-51413425D01*
X218217021Y-139709828D02*
X204582525Y-148906412D01*
X186730275Y-53413425D02*
G75*
G03*
X184730254Y-51413425I-1999975J25D01*
G01*
X110285684Y-113291081D02*
G75*
G03*
X109771361Y-113499165I485716J-1940219D01*
G01*
X155849463Y-124156730D02*
G75*
G03*
X156763487Y-125143737I1839037J786330D01*
G01*
X166778007Y-51270551D02*
G75*
G03*
X167520335Y-51413425I742393J1857351D01*
G01*
X109771361Y-113499164D02*
X94598698Y-122259105D01*
X188730254Y-70113425D02*
X217129323Y-70113425D01*
X219129375Y-72114356D02*
G75*
G03*
X217129323Y-70113425I-1999975J956D01*
G01*
X202539163Y-149021588D02*
X156763487Y-125143737D01*
X82813951Y-66247323D02*
X84201031Y-65528304D01*
X145593776Y-104452340D02*
X110285684Y-113291082D01*
X219129323Y-72114356D02*
X219098635Y-138052684D01*
X67398715Y-75147353D02*
G75*
G03*
X66666647Y-77879374I999985J-1732047D01*
G01*
X155849487Y-124156720D02*
X147918430Y-105606239D01*
X186730254Y-53413425D02*
X186730254Y-68113425D01*
X166778005Y-51270555D02*
G75*
G03*
X84201031Y-65528304I-29693245J-74285335D01*
G01*
X218217030Y-139709841D02*
G75*
G03*
X219098635Y-138052684I-1118530J1658141D01*
G01*
X67398698Y-75147323D02*
X82813951Y-66247323D01*
X186730275Y-68113425D02*
G75*
G03*
X188730254Y-70113425I2000025J25D01*
G01*
X147918494Y-105606212D02*
G75*
G03*
X145593777Y-104452340I-1838994J-786288D01*
G01*
X91866648Y-121527054D02*
X66666648Y-77879374D01*
M02*
